\relax 
\providecommand\hyper@newdestlabel[2]{}
\providecommand\HyperFirstAtBeginDocument{\AtBeginDocument}
\HyperFirstAtBeginDocument{\ifx\hyper@anchor\@undefined
\global\let\oldcontentsline\contentsline
\gdef\contentsline#1#2#3#4{\oldcontentsline{#1}{#2}{#3}}
\global\let\oldnewlabel\newlabel
\gdef\newlabel#1#2{\newlabelxx{#1}#2}
\gdef\newlabelxx#1#2#3#4#5#6{\oldnewlabel{#1}{{#2}{#3}}}
\AtEndDocument{\ifx\hyper@anchor\@undefined
\let\contentsline\oldcontentsline
\let\newlabel\oldnewlabel
\fi}
\fi}
\global\let\hyper@last\relax 
\gdef\HyperFirstAtBeginDocument#1{#1}
\providecommand\HyField@AuxAddToFields[1]{}
\providecommand\HyField@AuxAddToCoFields[2]{}
\citation{businessInsider}
\citation{harvardBusinessReview}
\citation{sandberg2015competing}
\citation{johnson2004racial}
\citation{aaslund2012anonymous}
\citation{wallStreetJournal}
\citation{readWrite}
\citation{openSource}
\citation{github}
\citation{bitbucket}
\citation{donath2011signals}
\citation{tsay2014influence}
\citation{horwitz2007effects}
\citation{businessInsider}
\citation{readWrite}
\citation{vasilescu2015perceptions}
\citation{GB15}
\@writefile{toc}{\contentsline {section}{\numberline {1}Introduction}{\thepage }{section.1}}
\citation{bertrand2003emily}
\citation{aaslund2012anonymous}
\citation{johnson2004racial}
\citation{vasilescu2015gender}
\citation{scacchi2006free}
\citation{vasilescu2015perceptions}
\citation{vasilescu2015gender}
\citation{marlow2013impression}
\citation{gousios2014exploratory}
\citation{mcdonald2013performance}
\citation{gousios2014exploratory}
\citation{gousios2014work}
\citation{GB15}
\citation{tsay2014let}
\citation{tsay2014influence}
\citation{GZ14}
\citation{tsay2014influence}
\citation{bird2007open}
\citation{pham2013creating}
\citation{GZ14}
\citation{marlow2013impression}
\citation{tsay2014influence}
\citation{GZ14}
\citation{tsay2014influence}
\citation{GZ14}
\citation{weissgerber2008small}
\citation{tsay2014influence}
\citation{easterbrook2008selecting}
\citation{creswell2013research}
\citation{dataForReplication}
\citation{tsay2014influence}
\citation{GZ14}
\citation{tsay2014influence}
\citation{GZ14}
\citation{vasilescu2015gender}
\citation{bertrand2003emily}
\citation{aaslund2012anonymous}
\citation{johnson2004racial}
\citation{shemla2014review}
\citation{byrne1971attraction}
\@writefile{toc}{\contentsline {section}{\numberline {2}Background and Related Work}{\thepage }{section.2}}
\@writefile{toc}{\contentsline {subsection}{\numberline {2.1}Visible demographic attributes and Bias}{\thepage }{subsection.2.1}}
\@writefile{toc}{\contentsline {subsection}{\numberline {2.2}Pull based development}{\thepage }{subsection.2.2}}
\@writefile{toc}{\contentsline {subsection}{\numberline {2.3}Factors influencing pull request acceptance decisions}{\thepage }{subsection.2.3}}
\@writefile{toc}{\contentsline {section}{\numberline {3}Methodology}{\thepage }{section.3}}
\@writefile{toc}{\contentsline {subsection}{\numberline {3.1}GitHub data}{\thepage }{subsection.3.1}}
\@writefile{toc}{\contentsline {subsubsection}{\numberline {3.1.1}Feature Selection}{\thepage }{subsubsection.3.1.1}}
\citation{tsay2014influence}
\citation{GZ14}
\citation{ghTorrent}
\citation{GB15}
\citation{GB15}
\citation{tsay2014influence}
\citation{vasilescu2015gender}
\@writefile{toc}{\contentsline {subsubsection}{\numberline {3.1.2}Data collection}{\thepage }{subsubsection.3.1.2}}
\@writefile{lot}{\contentsline {table}{\numberline {1}{\ignorespaces A comprehensive list of factors influencing pull request acceptance decisions}}{\thepage }{table.1}}
\newlabel{tab:listOfFactors}{{1}{\thepage }{A comprehensive list of factors influencing pull request acceptance decisions}{table.1}{}}
\@writefile{lot}{\contentsline {table}{\numberline {2}{\ignorespaces Pull request data generated}}{\thepage }{table.2}}
\newlabel{tab:processedData}{{2}{\thepage }{Pull request data generated}{table.2}{}}
\@writefile{toc}{\contentsline {subsubsection}{\numberline {3.1.3}Pull request project sample}{\thepage }{subsubsection.3.1.3}}
\@writefile{toc}{\contentsline {subsubsection}{\numberline {3.1.4}Statistical methods}{\thepage }{subsubsection.3.1.4}}
\citation{RLang}
\citation{stargazer}
\citation{ray2014large}
\citation{cohen2013applied}
\citation{flick2009introduction}
\citation{cramer1999mathematical}
\citation{kraska2013nonparametric}
\citation{vuong1989likelihood}
\citation{cohen2013applied}
\citation{sigelaman1981question}
\citation{furnham1986response}
\@writefile{toc}{\contentsline {subsection}{\numberline {3.2}Survey}{\thepage }{subsection.3.2}}
\@writefile{toc}{\contentsline {subsubsection}{\numberline {3.2.1}Design}{\thepage }{subsubsection.3.2.1}}
\citation{tsay2014influence}
\citation{GB15}
\@writefile{toc}{\contentsline {subsubsection}{\numberline {3.2.2}Identify Survey Respondents}{\thepage }{subsubsection.3.2.2}}
\@writefile{toc}{\contentsline {subsubsection}{\numberline {3.2.3}Data analysis}{\thepage }{subsubsection.3.2.3}}
\@writefile{toc}{\contentsline {section}{\numberline {4}Results}{\thepage }{section.4}}
\@writefile{toc}{\contentsline {subsection}{\numberline {4.1}Data Analysis}{\thepage }{subsection.4.1}}
\@writefile{lot}{\contentsline {table}{\numberline {3}{\ignorespaces Logistic regression model of factors influencing pull request acceptance decision}}{\thepage }{table.3}}
\newlabel{tab:prStatusModeling}{{3}{\thepage }{Logistic regression model of factors influencing pull request acceptance decision}{table.3}{}}
\@writefile{lot}{\contentsline {table}{\numberline {4}{\ignorespaces Deviance explained by factors influencing pull request acceptance decision}}{\thepage }{table.4}}
\newlabel{tab:prStatusVarianceExplained}{{4}{\thepage }{Deviance explained by factors influencing pull request acceptance decision}{table.4}{}}
\@writefile{toc}{\contentsline {subsection}{\numberline {4.2}Survey}{\thepage }{subsection.4.2}}
\@writefile{toc}{\contentsline {subsubsection}{\numberline {4.2.1}Submitters}{\thepage }{subsubsection.4.2.1}}
\@writefile{toc}{\contentsline {subsubsection}{\numberline {4.2.2}Integrators}{\thepage }{subsubsection.4.2.2}}
\@writefile{lot}{\contentsline {table}{\numberline {5}{\ignorespaces Submitters' perception on bias - location-wise}}{\thepage }{table.5}}
\newlabel{tab:SubmittersPerceptionOnBias}{{5}{\thepage }{Submitters' perception on bias - location-wise}{table.5}{}}
\@writefile{lot}{\contentsline {table}{\numberline {6}{\ignorespaces Integrators' perception on pull request quality and geographical location}}{\thepage }{table.6}}
\newlabel{tab:betterNat}{{6}{\thepage }{Integrators' perception on pull request quality and geographical location}{table.6}{}}
\@writefile{toc}{\contentsline {subsection}{\numberline {4.3}Open-ended survey responses}{\thepage }{subsection.4.3}}
\@writefile{lot}{\contentsline {table}{\numberline {7}{\ignorespaces Integrators' perception on ease to work with developers from their geographical location}}{\thepage }{table.7}}
\newlabel{tab:InGroupEase}{{7}{\thepage }{Integrators' perception on ease to work with developers from their geographical location}{table.7}{}}
\@writefile{lot}{\contentsline {table}{\numberline {8}{\ignorespaces Integrators' perception on encouraging developers from the same geographical location}}{\thepage }{table.8}}
\newlabel{tab:InGroupEncourage}{{8}{\thepage }{Integrators' perception on encouraging developers from the same geographical location}{table.8}{}}
\bibstyle{abbrv}
\bibdata{EthnicityStudy}
\@writefile{toc}{\contentsline {section}{\numberline {5}Threats to Validity}{\thepage }{section.5}}
\@writefile{toc}{\contentsline {subsection}{\numberline {5.1}Internal Validity}{\thepage }{subsection.5.1}}
\@writefile{toc}{\contentsline {subsection}{\numberline {5.2}External Validity}{\thepage }{subsection.5.2}}
\@writefile{toc}{\contentsline {section}{\numberline {6}Implications and Conclusions}{\thepage }{section.6}}
\@writefile{toc}{\contentsline {section}{\numberline {7}Acknowledgments}{\thepage }{section.7}}
\bibcite{bitbucket}{1}
\bibcite{ghTorrent}{2}
\bibcite{github}{3}
\bibcite{openSource}{4}
\bibcite{aaslund2012anonymous}{5}
\bibcite{businessInsider}{6}
\bibcite{bertrand2003emily}{7}
\bibcite{bird2007open}{8}
\bibcite{byrne1971attraction}{9}
\bibcite{cohen2013applied}{10}
\bibcite{cramer1999mathematical}{11}
\bibcite{creswell2013research}{12}
\bibcite{readWrite}{13}
\bibcite{donath2011signals}{14}
\bibcite{wallStreetJournal}{15}
\bibcite{easterbrook2008selecting}{16}
\bibcite{flick2009introduction}{17}
\bibcite{furnham1986response}{18}
\bibcite{GB15}{19}
\bibcite{gousios2014exploratory}{20}
\bibcite{GZ14}{21}
\bibcite{gousios2014work}{22}
\bibcite{stargazer}{23}
\bibcite{horwitz2007effects}{24}
\bibcite{johnson2004racial}{25}
\bibcite{kraska2013nonparametric}{26}
\bibcite{marlow2013impression}{27}
\bibcite{mcdonald2013performance}{28}
\bibcite{pham2013creating}{29}
\bibcite{RLang}{30}
\bibcite{dataForReplication}{31}
\bibcite{ray2014large}{32}
\bibcite{sandberg2015competing}{33}
\bibcite{scacchi2006free}{34}
\bibcite{shemla2014review}{35}
\bibcite{sigelaman1981question}{36}
\bibcite{tsay2014influence}{37}
\bibcite{tsay2014let}{38}
\bibcite{vasilescu2015perceptions}{39}
\bibcite{vasilescu2015gender}{40}
\bibcite{vuong1989likelihood}{41}
\bibcite{weissgerber2008small}{42}
\bibcite{harvardBusinessReview}{43}
\@writefile{toc}{\contentsline {section}{\numberline {8}References}{\thepage }{section.8}}
